Suite/Test/Step Name,Browser,Description,Tag,Start time,End time,Duration,Status
Delete Product Cucumber,,,,2023-07-02 13:12:39,2023-07-02 13:13:56,1m - 16.644s,PASSED
,,,,,,,
Test Cases/Samuel/Cucumber/Delete Runner,,,,2023-07-02 13:12:55,2023-07-02 13:13:56,1m - 0.871s,PASSED
Start listener action : beforeTestCase,,,,2023-07-02 13:12:55,2023-07-02 13:13:07,11.799s,PASSED
runWithCucumberRunner(RunnerDelete),,,,2023-07-02 13:13:07,2023-07-02 13:13:55,47.750s,PASSED
Start listener action : afterTestCase,,,,2023-07-02 13:13:55,2023-07-02 13:13:56,0.844s,PASSED
